<?xml version="1.0" encoding="UTF-8"?>
<svg data-bbox="51.8 47.8 696.4 133" viewBox="0 0 800 228.6" xmlns="http://www.w3.org/2000/svg" data-type="color">
    <g>
        <path fill="#002554" d="M298.9 106.9h-71.4V47.8h-13.9v133h13.9v-60h71.4v60h13.9v-133h-13.9v59.1z" data-color="1"/>
        <path fill="#002554" d="M117.9 180.8h4.2l1.6-3.8 1.1-2.5 43.8-93.9v100.2h13.9v-133h-13.9l-51.4 110.3L65.8 47.8h-14v133h13.9V80.6l43.8 93.9 1.2 2.5 1.5 3.8h5.7z" data-color="1"/>
        <path fill="#002554" d="M497.6 47.8h-13.4l-31.6 110.4-30.5-110.4h-14.5l-30.4 110.4-31.7-110.4h-14.4l38.1 133h15.9l29.8-103.7 29.7 103.7h16l38-133h-1z" data-color="1"/>
        <path fill="#c8d8eb" d="M571.6 47.8h-34.7l34.7 66.5-34.7 66.5h34.7l34.7-66.5-34.7-66.5z" data-color="2"/>
        <path fill="#326295" d="M640.6 47.8h-34.7l34.7 66.5-34.7 66.5h34.7l34.7-66.5-34.7-66.5z" data-color="3"/>
        <path fill="#002554" d="M713.5 47.8h-34.7l34.7 66.5-34.7 66.5h34.7l34.7-66.5-34.7-66.5z" data-color="1"/>
    </g>
</svg>
